{
  "$schema": "https://frontmatter.codes/frontmatter.schema.json",
  "frontMatter.framework.id": "jekyll",
  "frontMatter.content.publicFolder": "assets",
  "frontMatter.content.pageFolders": [
    {
      "title": "_posts",
      "path": "[[workspace]]/_posts"
    },
    {
      "title": "_pages",
      "path": "[[workspace]]/_pages"
    },
    {
      "title": "_includes",
      "path": "[[workspace]]/_includes"
    },
    {
      "title": "_layouts",
      "path": "[[workspace]]/_layouts"
    },
    {
      "title": "images",
      "path": "[[workspace]]/images"
    }
  ],
  "frontMatter.taxonomy.contentTypes": [
    {
      "name": "default",
      "pageBundle": false,
      "fields": [
        {
          "title": "Title",
          "name": "title",
          "type": "string"
        },
        {
          "title": "Description",
          "name": "description",
          "type": "string"
        },
        {
          "title": "Publishing date",
          "name": "date",
          "type": "datetime",
          "default": "{{now}}",
          "isPublishDate": true
        },
        {
          "title": "Content preview",
          "name": "preview",
          "type": "image"
        },
        {
          "title": "Is in draft",
          "name": "draft",
          "type": "boolean"
        },
        {
          "title": "Tags",
          "name": "tags",
          "type": "tags"
        },
        {
          "title": "Categories",
          "name": "categories",
          "type": "categories"
        },
        {
          "title": "keywords",
          "name": "keywords",
          "type": "fields",
          "fields": []
        }
      ]
    },
    {
      "name": "page",
      "pageBundle": false,
      "fields": [
        {
          "title": "title",
          "name": "title",
          "type": "string"
        },
        {
          "title": "description",
          "name": "description",
          "type": "string"
        },
        {
          "title": "keywords",
          "name": "keywords",
          "type": "fields",
          "fields": []
        },
        {
          "name": "type",
          "type": "string",
          "default": "page",
          "hidden": true
        },
        {
          "title": "permalink",
          "name": "permalink",
          "type": "string"
        }
      ]
    }
  ]
}